…
- 33 cities from 13 states with ≥ 10 well within 100 m of HOLC-graded neighborhoods
- 13 additional cities with wells within 3 km


```r
holc_exp %>%
  filter(city_wells_100m_all >= 10) %>%
  as_tibble() %>%
  distinct(city_state, city_wells_0km_all, city_wells_100m_all, 
           city_wells_1km_all) %>%
  arrange(desc(city_wells_100m_all))
```

```
## # A tibble: 33 x 4
##    city_state         city_wells_100m_all city_wells_1km_all city_wells_0km_all
##    <chr>                            <dbl>              <dbl>              <dbl>
##  1 Los Angeles - CA                  6618              11503               5311
##  2 Cleveland - OH                    1193               1925                972
##  3 Oklahoma City - OK                1167               1612                846
##  4 Erie - PA                          996               1208                396
##  5 San Antonio - TX                   886                888                849
##  6 Canton - OH                        295                514                209
##  7 Fort Worth - TX                    264                708                185
##  8 Akron - OH                         245                752                187
##  9 Saginaw - MI                       225                372                174
## 10 Lima - OH                          176               1745                119
## # … with 23 more rows
```
…
### Table. Cities with ≥ 10 wells w/in 100 m AND census tracts data, demographics

Make this a supplemental table


```
## `summarise()` regrouping output by 'city_state' (override with `.groups` argument)
```

```
## # A tibble: 41 x 5
## # Groups:   city_state [10]
##    city_state     holc_grade total_pop wells_1km_preholc wells_1km_postholc
##    <chr>          <chr>          <int>             <dbl>              <dbl>
##  1 Akron - OH     A              28231                 0                 97
##  2 Akron - OH     B              48210                10                181
##  3 Akron - OH     C              57070                 1                252
##  4 Akron - OH     D              47111                 7                186
##  5 Buffalo - NY   A              21820                 3                  0
##  6 Buffalo - NY   B              36344                 2                  0
##  7 Buffalo - NY   C               6532                 1                  8
##  8 Buffalo - NY   D              46890                 0                  6
##  9 Cleveland - OH A             100977                29                 65
## 10 Cleveland - OH B             200270                62                 71
## # … with 31 more rows
```
…
